module gitlab.com/otus-go-hw/grpc

go 1.13

require (
	github.com/golang/protobuf v1.4.0
	github.com/heetch/confita v0.9.0
	github.com/konsorten/go-windows-terminal-sequences v1.0.2 // indirect
	github.com/manifoldco/promptui v0.7.0
	github.com/sirupsen/logrus v1.5.0
	github.com/spf13/cobra v1.0.0
	github.com/spf13/pflag v1.0.5
	golang.org/x/sys v0.0.0-20200223170610-d5e6a3e2c0ae // indirect
	google.golang.org/grpc v1.27.0
)
